Feb 10 08:16:33.991 HYPERVISOR: Release 0.2.21-amd64/Linux (tag 2019071212)
Feb 10 08:16:33.991 HYPERVISOR: Started on IP = localhost, TCP port = 44721.
Feb 10 08:16:33.996 HYPERVISOR: exec_cmd: hypervisor version 
Feb 10 08:16:33.996 HYPERVISOR: exec_cmd: hypervisor working_dir /home/andrade/Documents/ETS_Redes2/ETSnetwork/project-files/dynamips 
Feb 10 08:16:33.997 GENERAL: working_dir=/home/andrade/Documents/ETS_Redes2/ETSnetwork/project-files/dynamips
Feb 10 08:16:33.997 HYPERVISOR: exec_cmd: ethsw create Switch 
Feb 10 08:16:34.293 HYPERVISOR: exec_cmd: nio create_udp udp-2625c84a-5731-4755-b569-b246b9dbc8ee 10001 127.0.0.1 10000 
Feb 10 08:16:34.293 HYPERVISOR: exec_cmd: ethsw add_nio Switch udp-2625c84a-5731-4755-b569-b246b9dbc8ee 
Feb 10 08:16:34.301 HYPERVISOR: exec_cmd: ethsw set_access_port Switch udp-2625c84a-5731-4755-b569-b246b9dbc8ee 1 
Feb 10 08:16:34.329 HYPERVISOR: exec_cmd: nio create_udp udp-2f1adcd0-730d-4a86-a6bd-1e058f32cff8 10003 127.0.0.1 10002 
Feb 10 08:16:34.329 HYPERVISOR: exec_cmd: ethsw add_nio Switch udp-2f1adcd0-730d-4a86-a6bd-1e058f32cff8 
Feb 10 08:16:34.341 HYPERVISOR: exec_cmd: ethsw set_access_port Switch udp-2f1adcd0-730d-4a86-a6bd-1e058f32cff8 1 
Feb 10 08:16:34.370 HYPERVISOR: exec_cmd: nio create_udp udp-564dd986-72c5-4468-bac5-b5074eedd4ae 10005 127.0.0.1 10004 
Feb 10 08:16:34.370 HYPERVISOR: exec_cmd: ethsw add_nio Switch udp-564dd986-72c5-4468-bac5-b5074eedd4ae 
Feb 10 08:16:34.382 HYPERVISOR: exec_cmd: ethsw set_access_port Switch udp-564dd986-72c5-4468-bac5-b5074eedd4ae 1 
Feb 10 08:16:34.435 HYPERVISOR: exec_cmd: nio create_udp udp-4db8b3cb-cc3b-4b7d-94af-899b7f6cdb0b 10007 127.0.0.1 10006 
Feb 10 08:16:34.435 HYPERVISOR: exec_cmd: ethsw add_nio Switch udp-4db8b3cb-cc3b-4b7d-94af-899b7f6cdb0b 
Feb 10 08:16:34.443 HYPERVISOR: exec_cmd: ethsw set_access_port Switch udp-4db8b3cb-cc3b-4b7d-94af-899b7f6cdb0b 1 
Feb 10 08:18:15.356 HYPERVISOR: exec_cmd: ethsw remove_nio Switch udp-4db8b3cb-cc3b-4b7d-94af-899b7f6cdb0b 
Feb 10 08:18:15.361 HYPERVISOR: exec_cmd: nio delete udp-4db8b3cb-cc3b-4b7d-94af-899b7f6cdb0b 
Feb 10 08:18:44.223 HYPERVISOR: exec_cmd: nio create_udp udp-6c6bc311-5e73-495a-9ee3-e4c4b85ecf2c 10007 127.0.0.1 10006 
Feb 10 08:18:44.223 HYPERVISOR: exec_cmd: ethsw add_nio Switch udp-6c6bc311-5e73-495a-9ee3-e4c4b85ecf2c 
Feb 10 08:18:44.233 HYPERVISOR: exec_cmd: ethsw set_access_port Switch udp-6c6bc311-5e73-495a-9ee3-e4c4b85ecf2c 1 
Feb 10 08:19:16.247 HYPERVISOR: exec_cmd: ethsw remove_nio Switch udp-6c6bc311-5e73-495a-9ee3-e4c4b85ecf2c 
Feb 10 08:19:16.255 HYPERVISOR: exec_cmd: nio delete udp-6c6bc311-5e73-495a-9ee3-e4c4b85ecf2c 
Feb 10 08:19:19.792 HYPERVISOR: exec_cmd: nio create_udp udp-b63e4b2e-ec72-4328-bf7b-91c935a47327 10007 127.0.0.1 10006 
Feb 10 08:19:19.792 HYPERVISOR: exec_cmd: ethsw add_nio Switch udp-b63e4b2e-ec72-4328-bf7b-91c935a47327 
Feb 10 08:19:19.793 HYPERVISOR: exec_cmd: ethsw set_access_port Switch udp-b63e4b2e-ec72-4328-bf7b-91c935a47327 1 
Feb 10 08:19:27.968 HYPERVISOR: exec_cmd: nio create_udp udp-eac67702-0701-4eaf-aa24-2e839ac58099 10009 127.0.0.1 10008 
Feb 10 08:19:27.969 HYPERVISOR: exec_cmd: ethsw add_nio Switch udp-eac67702-0701-4eaf-aa24-2e839ac58099 
Feb 10 08:19:27.984 HYPERVISOR: exec_cmd: ethsw set_access_port Switch udp-eac67702-0701-4eaf-aa24-2e839ac58099 1 
Feb 10 08:19:52.211 HYPERVISOR: exec_cmd: ethsw remove_nio Switch udp-eac67702-0701-4eaf-aa24-2e839ac58099 
Feb 10 08:19:52.236 HYPERVISOR: exec_cmd: nio delete udp-eac67702-0701-4eaf-aa24-2e839ac58099 
