uBridge version 0.9.18 running with libpcap version 1.10.0 (with TPACKET_V3)
Hypervisor TCP control server started (IP localhost port 42315).
UDP tunnel connecting from local port 10006 to IPv4 address 127.0.0.1 on port 10007
Source NIO listener thread for 89d2a2f6-de74-4346-a502-e9e9914eef85-0 has started
Destination NIO listener thread for 89d2a2f6-de74-4346-a502-e9e9914eef85-0 has started
